{
    "exportFormatVersion": 2,
    "exportTime": "2023-07-04 14:42:20",
    "containerVersion": {
        "path": "accounts/6004228288/containers/47398573/versions/0",
        "accountId": "6004228288",
        "containerId": "47398573",
        "containerVersionId": "0",
        "container": {
            "path": "accounts/6004228288/containers/47398573",
            "accountId": "6004228288",
            "containerId": "47398573",
            "name": "data-explorer",
            "publicId": "",
            "usageContext": [
                "WEB"
            ],
            "fingerprint": "1624461411547",
            "tagManagerUrl": "https://tagmanager.google.com/#/container/accounts/6004228288/containers/47398573/workspaces?apiLink=container",
            "features": {
                "supportUserPermissions": true,
                "supportEnvironments": true,
                "supportWorkspaces": true,
                "supportGtagConfigs": false,
                "supportBuiltInVariables": true,
                "supportClients": false,
                "supportFolders": true,
                "supportTags": true,
                "supportTemplates": true,
                "supportTriggers": true,
                "supportVariables": true,
                "supportVersions": true,
                "supportZones": true,
                "supportTransformations": false
            },
            "tagIds": [
                ""
            ]
        },
        "tag": [
            {
                "accountId": "6004228288",
                "containerId": "47398573",
                "tagId": "8",
                "name": "Cross Site Link",
                "type": "ua",
                "parameter": [
                    {
                        "type": "BOOLEAN",
                        "key": "nonInteraction",
                        "value": "false"
                    },
                    {
                        "type": "BOOLEAN",
                        "key": "overrideGaSettings",
                        "value": "false"
                    },
                    {
                        "type": "TEMPLATE",
                        "key": "eventCategory",
                        "value": "navigation"
                    },
                    {
                        "type": "TEMPLATE",
                        "key": "trackType",
                        "value": "TRACK_EVENT"
                    },
                    {
                        "type": "TEMPLATE",
                        "key": "gaSettings",
                        "value": "{{GA Token}}"
                    },
                    {
                        "type": "TEMPLATE",
                        "key": "eventAction",
                        "value": "crossSiteLink"
                    },
                    {
                        "type": "TEMPLATE",
                        "key": "eventLabel",
                        "value": "{{Click URL}}"
                    }
                ],
                "fingerprint": "1624461595089",
                "firingTriggerId": [
                    "7"
                ],
                "tagFiringOption": "ONCE_PER_EVENT",
                "monitoringMetadata": {
                    "type": "MAP"
                },
                "consentSettings": {
                    "consentStatus": "NOT_SET"
                }
            },
            {
                "accountId": "6004228288",
                "containerId": "47398573",
                "tagId": "23",
                "name": "GA - Custom Events",
                "type": "ua",
                "parameter": [
                    {
                        "type": "BOOLEAN",
                        "key": "nonInteraction",
                        "value": "false"
                    },
                    {
                        "type": "BOOLEAN",
                        "key": "overrideGaSettings",
                        "value": "false"
                    },
                    {
                        "type": "TEMPLATE",
                        "key": "eventCategory",
                        "value": "{{DLV - GA - Category}}"
                    },
                    {
                        "type": "TEMPLATE",
                        "key": "trackType",
                        "value": "TRACK_EVENT"
                    },
                    {
                        "type": "TEMPLATE",
                        "key": "gaSettings",
                        "value": "{{GA Token}}"
                    },
                    {
                        "type": "TEMPLATE",
                        "key": "eventAction",
                        "value": "{{DLV - GA - Action}}"
                    },
                    {
                        "type": "TEMPLATE",
                        "key": "eventLabel",
                        "value": "{{DLV - GA - Label}}"
                    }
                ],
                "fingerprint": "1624461595094",
                "firingTriggerId": [
                    "14",
                    "13",
                    "21",
                    "12",
                    "15",
                    "22",
                    "18",
                    "20",
                    "10",
                    "19"
                ],
                "tagFiringOption": "ONCE_PER_EVENT",
                "monitoringMetadata": {
                    "type": "MAP"
                },
                "consentSettings": {
                    "consentStatus": "NOT_SET"
                }
            },
            {
                "accountId": "6004228288",
                "containerId": "47398573",
                "tagId": "25",
                "name": "Outbound Link",
                "type": "ua",
                "parameter": [
                    {
                        "type": "BOOLEAN",
                        "key": "nonInteraction",
                        "value": "false"
                    },
                    {
                        "type": "BOOLEAN",
                        "key": "overrideGaSettings",
                        "value": "false"
                    },
                    {
                        "type": "TEMPLATE",
                        "key": "eventCategory",
                        "value": "navigation"
                    },
                    {
                        "type": "TEMPLATE",
                        "key": "trackType",
                        "value": "TRACK_EVENT"
                    },
                    {
                        "type": "TEMPLATE",
                        "key": "gaSettings",
                        "value": "{{GA Token}}"
                    },
                    {
                        "type": "TEMPLATE",
                        "key": "eventAction",
                        "value": "outboundLink"
                    },
                    {
                        "type": "TEMPLATE",
                        "key": "eventLabel",
                        "value": "{{Click URL}}"
                    }
                ],
                "fingerprint": "1624461595095",
                "firingTriggerId": [
                    "24"
                ],
                "tagFiringOption": "ONCE_PER_EVENT",
                "monitoringMetadata": {
                    "type": "MAP"
                },
                "consentSettings": {
                    "consentStatus": "NOT_SET"
                }
            },
            {
                "accountId": "6004228288",
                "containerId": "47398573",
                "tagId": "29",
                "name": "GA4 Configuration",
                "type": "gaawc",
                "parameter": [
                    {
                        "type": "BOOLEAN",
                        "key": "sendPageView",
                        "value": "true"
                    },
                    {
                        "type": "BOOLEAN",
                        "key": "enableSendToServerContainer",
                        "value": "false"
                    },
                    {
                        "type": "TEMPLATE",
                        "key": "measurementId",
                        "value": ""
                    }
                ],
                "fingerprint": "1685625741128",
                "firingTriggerId": [
                    "2147479553"
                ],
                "tagFiringOption": "ONCE_PER_EVENT",
                "monitoringMetadata": {
                    "type": "MAP"
                },
                "consentSettings": {
                    "consentStatus": "NOT_SET"
                }
            }
        ],
        "trigger": [
            {
                "accountId": "6004228288",
                "containerId": "47398573",
                "triggerId": "7",
                "name": "Link click - cross site link",
                "type": "LINK_CLICK",
                "filter": [
                    {
                        "type": "EQUALS",
                        "parameter": [
                            {
                                "type": "TEMPLATE",
                                "key": "arg0",
                                "value": "{{Cross-domain}}"
                            },
                            {
                                "type": "TEMPLATE",
                                "key": "arg1",
                                "value": "false"
                            }
                        ]
                    },
                    {
                        "type": "EQUALS",
                        "parameter": [
                            {
                                "type": "TEMPLATE",
                                "key": "arg0",
                                "value": "{{AEV - is outbound link}}"
                            },
                            {
                                "type": "TEMPLATE",
                                "key": "arg1",
                                "value": "true"
                            }
                        ]
                    }
                ],
                "waitForTags": {
                    "type": "BOOLEAN",
                    "value": "false"
                },
                "checkValidation": {
                    "type": "BOOLEAN",
                    "value": "false"
                },
                "waitForTagsTimeout": {
                    "type": "TEMPLATE",
                    "value": "2000"
                },
                "uniqueTriggerId": {
                    "type": "TEMPLATE"
                },
                "fingerprint": "1624461595088"
            },
            {
                "accountId": "6004228288",
                "containerId": "47398573",
                "triggerId": "10",
                "name": "Change Layout",
                "type": "CUSTOM_EVENT",
                "customEventFilter": [
                    {
                        "type": "EQUALS",
                        "parameter": [
                            {
                                "type": "TEMPLATE",
                                "key": "arg0",
                                "value": "{{_event}}"
                            },
                            {
                                "type": "TEMPLATE",
                                "key": "arg1",
                                "value": "change_layout"
                            }
                        ]
                    }
                ],
                "fingerprint": "1624461595089"
            },
            {
                "accountId": "6004228288",
                "containerId": "47398573",
                "triggerId": "12",
                "name": "Login",
                "type": "CUSTOM_EVENT",
                "customEventFilter": [
                    {
                        "type": "EQUALS",
                        "parameter": [
                            {
                                "type": "TEMPLATE",
                                "key": "arg0",
                                "value": "{{_event}}"
                            },
                            {
                                "type": "TEMPLATE",
                                "key": "arg1",
                                "value": "login"
                            }
                        ]
                    }
                ],
                "fingerprint": "1624461595090"
            },
            {
                "accountId": "6004228288",
                "containerId": "47398573",
                "triggerId": "13",
                "name": "Download Excel",
                "type": "CUSTOM_EVENT",
                "customEventFilter": [
                    {
                        "type": "EQUALS",
                        "parameter": [
                            {
                                "type": "TEMPLATE",
                                "key": "arg0",
                                "value": "{{_event}}"
                            },
                            {
                                "type": "TEMPLATE",
                                "key": "arg1",
                                "value": "downloadExcel"
                            }
                        ]
                    }
                ],
                "fingerprint": "1624461595090"
            },
            {
                "accountId": "6004228288",
                "containerId": "47398573",
                "triggerId": "14",
                "name": "Load Dataflow",
                "type": "CUSTOM_EVENT",
                "customEventFilter": [
                    {
                        "type": "MATCH_REGEX",
                        "parameter": [
                            {
                                "type": "TEMPLATE",
                                "key": "arg0",
                                "value": "{{_event}}"
                            },
                            {
                                "type": "TEMPLATE",
                                "key": "arg1",
                                "value": "load_dataflow"
                            }
                        ]
                    }
                ],
                "fingerprint": "1624461595091"
            },
            {
                "accountId": "6004228288",
                "containerId": "47398573",
                "triggerId": "15",
                "name": "Share",
                "type": "CUSTOM_EVENT",
                "customEventFilter": [
                    {
                        "type": "EQUALS",
                        "parameter": [
                            {
                                "type": "TEMPLATE",
                                "key": "arg0",
                                "value": "{{_event}}"
                            },
                            {
                                "type": "TEMPLATE",
                                "key": "arg1",
                                "value": "share"
                            }
                        ]
                    }
                ],
                "fingerprint": "1624461595091"
            },
            {
                "accountId": "6004228288",
                "containerId": "47398573",
                "triggerId": "18",
                "name": "Download png",
                "type": "CUSTOM_EVENT",
                "customEventFilter": [
                    {
                        "type": "EQUALS",
                        "parameter": [
                            {
                                "type": "TEMPLATE",
                                "key": "arg0",
                                "value": "{{_event}}"
                            },
                            {
                                "type": "TEMPLATE",
                                "key": "arg1",
                                "value": "downloadPng"
                            }
                        ]
                    }
                ],
                "fingerprint": "1624461595092"
            },
            {
                "accountId": "6004228288",
                "containerId": "47398573",
                "triggerId": "19",
                "name": "Change Viewer",
                "type": "CUSTOM_EVENT",
                "customEventFilter": [
                    {
                        "type": "EQUALS",
                        "parameter": [
                            {
                                "type": "TEMPLATE",
                                "key": "arg0",
                                "value": "{{_event}}"
                            },
                            {
                                "type": "TEMPLATE",
                                "key": "arg1",
                                "value": "change_viewer"
                            }
                        ]
                    }
                ],
                "fingerprint": "1624461595092"
            },
            {
                "accountId": "6004228288",
                "containerId": "47398573",
                "triggerId": "20",
                "name": "Browse By",
                "type": "CUSTOM_EVENT",
                "customEventFilter": [
                    {
                        "type": "EQUALS",
                        "parameter": [
                            {
                                "type": "TEMPLATE",
                                "key": "arg0",
                                "value": "{{_event}}"
                            },
                            {
                                "type": "TEMPLATE",
                                "key": "arg1",
                                "value": "change_constraints"
                            }
                        ]
                    }
                ],
                "fingerprint": "1624461595092"
            },
            {
                "accountId": "6004228288",
                "containerId": "47398573",
                "triggerId": "21",
                "name": "Download CSV",
                "type": "CUSTOM_EVENT",
                "customEventFilter": [
                    {
                        "type": "EQUALS",
                        "parameter": [
                            {
                                "type": "TEMPLATE",
                                "key": "arg0",
                                "value": "{{_event}}"
                            },
                            {
                                "type": "TEMPLATE",
                                "key": "arg1",
                                "value": "downloadCsv"
                            }
                        ]
                    }
                ],
                "fingerprint": "1624461595093"
            },
            {
                "accountId": "6004228288",
                "containerId": "47398573",
                "triggerId": "22",
                "name": "Search term",
                "type": "CUSTOM_EVENT",
                "customEventFilter": [
                    {
                        "type": "EQUALS",
                        "parameter": [
                            {
                                "type": "TEMPLATE",
                                "key": "arg0",
                                "value": "{{_event}}"
                            },
                            {
                                "type": "TEMPLATE",
                                "key": "arg1",
                                "value": "change_term"
                            }
                        ]
                    }
                ],
                "fingerprint": "1624461595093"
            },
            {
                "accountId": "6004228288",
                "containerId": "47398573",
                "triggerId": "24",
                "name": "Link click - outbound link",
                "type": "LINK_CLICK",
                "filter": [
                    {
                        "type": "EQUALS",
                        "parameter": [
                            {
                                "type": "TEMPLATE",
                                "key": "arg0",
                                "value": "{{AEV - is outbound link}}"
                            },
                            {
                                "type": "TEMPLATE",
                                "key": "arg1",
                                "value": "true"
                            }
                        ]
                    },
                    {
                        "type": "EQUALS",
                        "parameter": [
                            {
                                "type": "TEMPLATE",
                                "key": "arg0",
                                "value": "{{Cross-domain}}"
                            },
                            {
                                "type": "TEMPLATE",
                                "key": "arg1",
                                "value": "true"
                            }
                        ]
                    }
                ],
                "waitForTags": {
                    "type": "BOOLEAN",
                    "value": "false"
                },
                "checkValidation": {
                    "type": "BOOLEAN",
                    "value": "false"
                },
                "waitForTagsTimeout": {
                    "type": "TEMPLATE",
                    "value": "2000"
                },
                "uniqueTriggerId": {
                    "type": "TEMPLATE"
                },
                "fingerprint": "1624461595094"
            }
        ],
        "variable": [
            {
                "accountId": "6004228288",
                "containerId": "47398573",
                "variableId": "3",
                "name": "GA Token",
                "type": "gas",
                "parameter": [
                    {
                        "type": "TEMPLATE",
                        "key": "cookieDomain",
                        "value": "auto"
                    },
                    {
                        "type": "BOOLEAN",
                        "key": "doubleClick",
                        "value": "false"
                    },
                    {
                        "type": "BOOLEAN",
                        "key": "setTrackerName",
                        "value": "false"
                    },
                    {
                        "type": "BOOLEAN",
                        "key": "useDebugVersion",
                        "value": "false"
                    },
                    {
                        "type": "BOOLEAN",
                        "key": "useHashAutoLink",
                        "value": "false"
                    },
                    {
                        "type": "BOOLEAN",
                        "key": "decorateFormsAutoLink",
                        "value": "false"
                    },
                    {
                        "type": "BOOLEAN",
                        "key": "enableLinkId",
                        "value": "false"
                    },
                    {
                        "type": "BOOLEAN",
                        "key": "enableEcommerce",
                        "value": "false"
                    },
                    {
                        "type": "TEMPLATE",
                        "key": "trackingId",
                        "value": "UA-29060297-2"
                    }
                ],
                "fingerprint": "1624461740666"
            },
            {
                "accountId": "6004228288",
                "containerId": "47398573",
                "variableId": "4",
                "name": "Cross-domain",
                "type": "aev",
                "parameter": [
                    {
                        "type": "BOOLEAN",
                        "key": "setDefaultValue",
                        "value": "false"
                    },
                    {
                        "type": "TEMPLATE",
                        "key": "varType",
                        "value": "URL"
                    },
                    {
                        "type": "TEMPLATE",
                        "key": "component",
                        "value": "IS_OUTBOUND"
                    },
                    {
                        "type": "TEMPLATE",
                        "key": "affiliatedDomains",
                        "value": "https://siscc.org/, https://www.oecd.org/, https://www.oecd.org/privacy/, https://www.oecd.org/termsandconditions/, https://siscc.org/contact/"
                    }
                ],
                "fingerprint": "1686034896536",
                "formatValue": {}
            },
            {
                "accountId": "6004228288",
                "containerId": "47398573",
                "variableId": "5",
                "name": "Domain",
                "type": "c",
                "parameter": [
                    {
                        "type": "TEMPLATE",
                        "key": "value",
                        "value": "https://de-qa.siscc.org/"
                    }
                ],
                "fingerprint": "1624461782885",
                "formatValue": {}
            },
            {
                "accountId": "6004228288",
                "containerId": "47398573",
                "variableId": "6",
                "name": "AEV - is outbound link",
                "type": "aev",
                "parameter": [
                    {
                        "type": "BOOLEAN",
                        "key": "setDefaultValue",
                        "value": "false"
                    },
                    {
                        "type": "TEMPLATE",
                        "key": "varType",
                        "value": "URL"
                    },
                    {
                        "type": "TEMPLATE",
                        "key": "component",
                        "value": "IS_OUTBOUND"
                    },
                    {
                        "type": "TEMPLATE",
                        "key": "affiliatedDomains",
                        "value": "{{Domain}}"
                    }
                ],
                "fingerprint": "1624461595088",
                "formatValue": {}
            },
            {
                "accountId": "6004228288",
                "containerId": "47398573",
                "variableId": "9",
                "name": "DLV - GA - Category",
                "type": "v",
                "parameter": [
                    {
                        "type": "INTEGER",
                        "key": "dataLayerVersion",
                        "value": "2"
                    },
                    {
                        "type": "BOOLEAN",
                        "key": "setDefaultValue",
                        "value": "false"
                    },
                    {
                        "type": "TEMPLATE",
                        "key": "name",
                        "value": "customCategory"
                    }
                ],
                "fingerprint": "1624461595089",
                "formatValue": {}
            },
            {
                "accountId": "6004228288",
                "containerId": "47398573",
                "variableId": "11",
                "name": "GA Domain",
                "type": "gas",
                "parameter": [
                    {
                        "type": "TEMPLATE",
                        "key": "cookieDomain",
                        "value": "auto"
                    },
                    {
                        "type": "BOOLEAN",
                        "key": "doubleClick",
                        "value": "false"
                    },
                    {
                        "type": "BOOLEAN",
                        "key": "setTrackerName",
                        "value": "false"
                    },
                    {
                        "type": "BOOLEAN",
                        "key": "useDebugVersion",
                        "value": "false"
                    },
                    {
                        "type": "BOOLEAN",
                        "key": "useHashAutoLink",
                        "value": "false"
                    },
                    {
                        "type": "BOOLEAN",
                        "key": "decorateFormsAutoLink",
                        "value": "false"
                    },
                    {
                        "type": "BOOLEAN",
                        "key": "enableLinkId",
                        "value": "false"
                    },
                    {
                        "type": "BOOLEAN",
                        "key": "enableEcommerce",
                        "value": "false"
                    },
                    {
                        "type": "TEMPLATE",
                        "key": "trackingId",
                        "value": "{{GA Token}}"
                    }
                ],
                "fingerprint": "1624461595090"
            },
            {
                "accountId": "6004228288",
                "containerId": "47398573",
                "variableId": "16",
                "name": "DLV - GA - Action",
                "type": "v",
                "parameter": [
                    {
                        "type": "INTEGER",
                        "key": "dataLayerVersion",
                        "value": "2"
                    },
                    {
                        "type": "BOOLEAN",
                        "key": "setDefaultValue",
                        "value": "false"
                    },
                    {
                        "type": "TEMPLATE",
                        "key": "name",
                        "value": "customAction"
                    }
                ],
                "fingerprint": "1624461595091",
                "formatValue": {}
            },
            {
                "accountId": "6004228288",
                "containerId": "47398573",
                "variableId": "17",
                "name": "DLV - GA - Label",
                "type": "v",
                "parameter": [
                    {
                        "type": "INTEGER",
                        "key": "dataLayerVersion",
                        "value": "2"
                    },
                    {
                        "type": "BOOLEAN",
                        "key": "setDefaultValue",
                        "value": "false"
                    },
                    {
                        "type": "TEMPLATE",
                        "key": "name",
                        "value": "customLabel"
                    }
                ],
                "fingerprint": "1624461595092",
                "formatValue": {}
            },
            {
                "accountId": "6004228288",
                "containerId": "47398573",
                "variableId": "26",
                "name": "JS - Page Title",
                "type": "j",
                "parameter": [
                    {
                        "type": "TEMPLATE",
                        "key": "name",
                        "value": "document.title"
                    }
                ],
                "fingerprint": "1624461595095",
                "formatValue": {}
            },
            {
                "accountId": "6004228288",
                "containerId": "47398573",
                "variableId": "27",
                "name": "GA Cross Domain",
                "type": "gas",
                "parameter": [
                    {
                        "type": "TEMPLATE",
                        "key": "cookieDomain",
                        "value": "{{Cross-domain}}"
                    },
                    {
                        "type": "BOOLEAN",
                        "key": "doubleClick",
                        "value": "false"
                    },
                    {
                        "type": "BOOLEAN",
                        "key": "setTrackerName",
                        "value": "false"
                    },
                    {
                        "type": "BOOLEAN",
                        "key": "useDebugVersion",
                        "value": "false"
                    },
                    {
                        "type": "BOOLEAN",
                        "key": "useHashAutoLink",
                        "value": "false"
                    },
                    {
                        "type": "BOOLEAN",
                        "key": "decorateFormsAutoLink",
                        "value": "false"
                    },
                    {
                        "type": "BOOLEAN",
                        "key": "enableLinkId",
                        "value": "false"
                    },
                    {
                        "type": "BOOLEAN",
                        "key": "enableEcommerce",
                        "value": "false"
                    },
                    {
                        "type": "TEMPLATE",
                        "key": "trackingId",
                        "value": "{{GA Token}}"
                    }
                ],
                "fingerprint": "1624461595095"
            }
        ],
        "builtInVariable": [
            {
                "accountId": "6004228288",
                "containerId": "47398573",
                "type": "PAGE_URL",
                "name": "Page URL"
            },
            {
                "accountId": "6004228288",
                "containerId": "47398573",
                "type": "PAGE_HOSTNAME",
                "name": "Page Hostname"
            },
            {
                "accountId": "6004228288",
                "containerId": "47398573",
                "type": "PAGE_PATH",
                "name": "Page Path"
            },
            {
                "accountId": "6004228288",
                "containerId": "47398573",
                "type": "REFERRER",
                "name": "Referrer"
            },
            {
                "accountId": "6004228288",
                "containerId": "47398573",
                "type": "EVENT",
                "name": "Event"
            },
            {
                "accountId": "6004228288",
                "containerId": "47398573",
                "type": "CLICK_URL",
                "name": "Click URL"
            }
        ],
        "fingerprint": "1688481740578",
        "tagManagerUrl": "https://tagmanager.google.com/#/versions/accounts/6004228288/containers/47398573/versions/0?apiLink=version"
    }
}